[
  {
    "name": "Academics",
    "permission": { "default": 0 },
    "type": "skill",
    "data": {
      "description": "See SWADE p.29",
      "notes": "",
      "attribute": "smarts",
      "die": { "sides": 4, "modifier": "" },
      "wild-die": { "sides": 6 }
    }
  },
  {
    "name": "Athletics",
    "permission": { "default": 0 },
    "type": "skill",
    "data": {
      "description": "See SWADE p.29",
      "notes": "",
      "attribute": "agility",
      "die": { "sides": 4, "modifier": "" },
      "wild-die": { "sides": 6 }
    }
  },
  {
    "name": "Battle",
    "permission": { "default": 0 },
    "type": "skill",
    "data": {
      "description": "See SWADE p.29",
      "notes": "",
      "attribute": "smarts",
      "die": { "sides": 4, "modifier": "" },
      "wild-die": { "sides": 6 }
    }
  },
  {
    "name": "Boating",
    "permission": { "default": 0 },
    "type": "skill",
    "data": {
      "description": "See SWADE p.29",
      "notes": "",
      "attribute": "agility",
      "die": { "sides": 4, "modifier": "" },
      "wild-die": { "sides": 6 }
    }
  },
  {
    "name": "Common Knowledge",
    "permission": { "default": 0 },
    "type": "skill",
    "data": {
      "description": "See SWADE p.30",
      "notes": "",
      "attribute": "smarts",
      "die": { "sides": 4, "modifier": "" },
      "wild-die": { "sides": 6 }
    }
  },
  {
    "name": "Driving",
    "permission": { "default": 0 },
    "type": "skill",
    "data": {
      "description": "See SWADE p.30",
      "notes": "",
      "attribute": "agility",
      "die": { "sides": 4, "modifier": "" },
      "wild-die": { "sides": 6 }
    }
  },
  {
    "name": "Electronics",
    "permission": { "default": 0 },
    "type": "skill",
    "data": {
      "description": "See SWADE p.30",
      "notes": "",
      "attribute": "smarts",
      "die": { "sides": 4, "modifier": "" },
      "wild-die": { "sides": 6 }
    }
  },
  {
    "name": "Faith",
    "permission": { "default": 0 },
    "type": "skill",
    "data": {
      "description": "See SWADE p.30",
      "notes": "",
      "attribute": "spirit",
      "die": { "sides": 4, "modifier": "" },
      "wild-die": { "sides": 6 }
    }
  },
  {
    "name": "Fighting",
    "permission": { "default": 0 },
    "type": "skill",
    "data": {
      "description": "See SWADE p.30",
      "notes": "",
      "attribute": "agility",
      "die": { "sides": 4, "modifier": "" },
      "wild-die": { "sides": 6 }
    }
  },
  {
    "name": "Focus",
    "permission": { "default": 0 },
    "type": "skill",
    "data": {
      "description": "See SWADE p.30",
      "notes": "",
      "attribute": "spirit",
      "die": { "sides": 4, "modifier": "" },
      "wild-die": { "sides": 6 }
    }
  },
  {
    "name": "Gambling",
    "permission": { "default": 0 },
    "type": "skill",
    "data": {
      "description": "See SWADE p.30",
      "notes": "",
      "attribute": "smarts",
      "die": { "sides": 4, "modifier": "" },
      "wild-die": { "sides": 6 }
    }
  },
  {
    "name": "Hacking",
    "permission": { "default": 0 },
    "type": "skill",
    "data": {
      "description": "See SWADE p.31",
      "notes": "",
      "attribute": "smarts",
      "die": { "sides": 4, "modifier": "" },
      "wild-die": { "sides": 6 }
    }
  },
  {
    "name": "Healing",
    "permission": { "default": 0 },
    "type": "skill",
    "data": {
      "description": "See SWADE p.31",
      "notes": "",
      "attribute": "smarts",
      "die": { "sides": 4, "modifier": "" },
      "wild-die": { "sides": 6 }
    }
  },
  {
    "name": "Intimidation",
    "permission": { "default": 0 },
    "type": "skill",
    "data": {
      "description": "See SWADE p.31",
      "notes": "",
      "attribute": "spirit",
      "die": { "sides": 4, "modifier": "" },
      "wild-die": { "sides": 6 }
    }
  },
  {
    "name": "Language",
    "permission": { "default": 0 },
    "type": "skill",
    "data": {
      "description": "See SWADE p.31",
      "notes": "",
      "attribute": "smarts",
      "die": { "sides": 4, "modifier": "" },
      "wild-die": { "sides": 6 }
    }
  },
  {
    "name": "Notice",
    "permission": { "default": 0 },
    "type": "skill",
    "data": {
      "description": "See SWADE p.32",
      "notes": "",
      "attribute": "smarts",
      "die": { "sides": 4, "modifier": "" },
      "wild-die": { "sides": 6 }
    }
  },
  {
    "name": "Occult",
    "permission": { "default": 0 },
    "type": "skill",
    "data": {
      "description": "See SWADE p.32",
      "notes": "",
      "attribute": "smarts",
      "die": { "sides": 4, "modifier": "" },
      "wild-die": { "sides": 6 }
    }
  },
  {
    "name": "Performance",
    "permission": { "default": 0 },
    "type": "skill",
    "data": {
      "description": "See SWADE p.32",
      "notes": "",
      "attribute": "spirit",
      "die": { "sides": 4, "modifier": "" },
      "wild-die": { "sides": 6 }
    }
  },
  {
    "name": "Persuasion",
    "permission": { "default": 0 },
    "type": "skill",
    "data": {
      "description": "See SWADE p.33",
      "notes": "",
      "attribute": "spirit",
      "die": { "sides": 4, "modifier": "" },
      "wild-die": { "sides": 6 }
    }
  },
  {
    "name": "Piloting",
    "permission": { "default": 0 },
    "type": "skill",
    "data": {
      "description": "See SWADE p.33",
      "notes": "",
      "attribute": "agility",
      "die": { "sides": 4, "modifier": "" },
      "wild-die": { "sides": 6 }
    }
  },
  {
    "name": "Psionics",
    "permission": { "default": 0 },
    "type": "skill",
    "data": {
      "description": "See SWADE p.33",
      "notes": "",
      "attribute": "smarts",
      "die": { "sides": 4, "modifier": "" },
      "wild-die": { "sides": 6 }
    }
  },
  {
    "name": "Repair",
    "permission": { "default": 0 },
    "type": "skill",
    "data": {
      "description": "See SWADE p.34",
      "notes": "",
      "attribute": "smarts",
      "die": { "sides": 4, "modifier": "" },
      "wild-die": { "sides": 6 }
    }
  },
  {
    "name": "Research",
    "permission": { "default": 0 },
    "type": "skill",
    "data": {
      "description": "See SWADE p.34",
      "notes": "",
      "attribute": "smarts",
      "die": { "sides": 4, "modifier": "" },
      "wild-die": { "sides": 6 }
    }
  },
  {
    "name": "Riding",
    "permission": { "default": 0 },
    "type": "skill",
    "data": {
      "description": "See SWADE p.34",
      "notes": "",
      "attribute": "agility",
      "die": { "sides": 4, "modifier": "" },
      "wild-die": { "sides": 6 }
    }
  },
  {
    "name": "Science",
    "permission": { "default": 0 },
    "type": "skill",
    "data": {
      "description": "See SWADE p.34",
      "notes": "",
      "attribute": "smarts",
      "die": { "sides": 4, "modifier": "" },
      "wild-die": { "sides": 6 }
    }
  },
  {
    "name": "Shooting",
    "permission": { "default": 0 },
    "type": "skill",
    "data": {
      "description": "See SWADE p.35",
      "notes": "",
      "attribute": "agility",
      "die": { "sides": 4, "modifier": "" },
      "wild-die": { "sides": 6 }
    }
  },
  {
    "name": "Spellcasting",
    "permission": { "default": 0 },
    "type": "skill",
    "data": {
      "description": "See SWADE p.35",
      "notes": "",
      "attribute": "smarts",
      "die": { "sides": 4, "modifier": "" },
      "wild-die": { "sides": 6 }
    }
  },
  {
    "name": "Stealth",
    "permission": { "default": 0 },
    "type": "skill",
    "data": {
      "description": "See SWADE p.35",
      "notes": "",
      "attribute": "agility",
      "die": { "sides": 4, "modifier": "" },
      "wild-die": { "sides": 6 }
    }
  },
  {
    "name": "Survival",
    "permission": { "default": 0 },
    "type": "skill",
    "data": {
      "description": "See SWADE p.35",
      "notes": "",
      "attribute": "smarts",
      "die": { "sides": 4, "modifier": "" },
      "wild-die": { "sides": 6 }
    }
  },
  {
    "name": "Taunt",
    "permission": { "default": 0 },
    "type": "skill",
    "data": {
      "description": "See SWADE p.35",
      "notes": "",
      "attribute": "smarts",
      "die": { "sides": 4, "modifier": "" },
      "wild-die": { "sides": 6 }
    }
  },
  {
    "name": "Thievery",
    "permission": { "default": 0 },
    "type": "skill",
    "data": {
      "description": "See SWADE p.35",
      "notes": "",
      "attribute": "agility",
      "die": { "sides": 4, "modifier": "" },
      "wild-die": { "sides": 6 }
    }
  },
  {
    "name": "Wierd Science",
    "permission": { "default": 0 },
    "type": "skill",
    "data": {
      "description": "See SWADE p.36",
      "notes": "",
      "attribute": "smarts",
      "die": { "sides": 4, "modifier": "" },
      "wild-die": { "sides": 6 }
    }
  },
  {
    "name": "Untrained",
    "permission": { "default": 0 },
    "type": "skill",
    "data": {
      "description": "See SWADE p.89",
      "notes": "",
      "attribute": "",
      "die": { "sides": 4, "modifier": "-2" },
      "wild-die": { "sides": 6 }
    }
  }
]
